{
  "brokerHost": "127.0.0.1",
  "brokerPort": 6379,
  "brokerPassword":"",
  "brokerDB":0,

  "backendHost": "127.0.0.1",
  "backendPort": 6379,
  "backendPassword": "",
  "backendDB": 0,

  "defaultQueue": "test_tasks",
  "maxWorkerInstance": 10,
  "resultsExpireIn": 3600000
}
